"{\"response\":{\"status\":\"ok\",\"userTier\":\"developer\",\"total\":73248,\"startIndex\":1,\"pageSize\":10,\"currentPage\":1,\"pages\":7325,\"orderBy\":\"relevance\",\"results\":[{\"id\":\"science/2016/aug/28/china-new-space-superpower-lunar-mars-missions\",\"type\":\"article\",\"sectionId\":\"science\",\"sectionName\":\"Science\",\"webPublicationDate\":\"2016-08-28T08:00:27Z\",\"webTitle\":\"China: the new space superpower\",\"webUrl\":\"https://www.theguardian.com/science/2016/aug/28/china-new-space-superpower-lunar-mars-missions\",\"apiUrl\":\"https://content.guardianapis.com/science/2016/aug/28/china-new-space-superpower-lunar-mars-missions\",\"isHosted\":false},{\"id\":\"world/2016/jul/13/china-damns-international-court-after-south-china-sea-slapdown\",\"type\":\"article\",\"sectionId\":\"world\",\"sectionName\":\"World news\",\"webPublicationDate\":\"2016-07-13T06:39:32Z\",\"webTitle\":\"China attacks international court after South China Sea ruling\",\"webUrl\":\"https://www.theguardian.com/world/2016/jul/13/china-damns-international-court-after-south-china-sea-slapdown\",\"apiUrl\":\"https://content.guardianapis.com/world/2016/jul/13/china-damns-international-court-after-south-china-sea-slapdown\",\"isHosted\":false},{\"id\":\"us-news/2016/sep/05/barack-obama-china-g20\",\"type\":\"article\",\"sectionId\":\"us-news\",\"sectionName\":\"US news\",\"webPublicationDate\":\"2016-09-05T12:45:14Z\",\"webTitle\":\"China: Obama G20 snub sensationalized by media | The daily briefing\",\"webUrl\":\"https://www.theguardian.com/us-news/2016/sep/05/barack-obama-china-g20\",\"apiUrl\":\"https://content.guardianapis.com/us-news/2016/sep/05/barack-obama-china-g20\",\"isHosted\":false},{\"id\":\"world/2016/aug/02/china-puts-human-rights-activists-on-trial\",\"type\":\"article\",\"sectionId\":\"world\",\"sectionName\":\"World news\",\"webPublicationDate\":\"2016-08-02T08:18:52Z\",\"webTitle\":\"China puts  human rights activists on trial\",\"webUrl\":\"https://www.theguardian.com/world/2016/aug/02/china-puts-human-rights-activists-on-trial\",\"apiUrl\":\"https://content.guardianapis.com/world/2016/aug/02/china-puts-human-rights-activists-on-trial\",\"isHosted\":false},{\"id\":\"business/2016/jul/31/sainsburys-makes-online-push-in-china-tmall-global\",\"type\":\"article\",\"sectionId\":\"business\",\"sectionName\":\"Business\",\"webPublicationDate\":\"2016-07-31T16:20:55Z\",\"webTitle\":\"Sainsbury's steps up online push in China\",\"webUrl\":\"https://www.theguardian.com/business/2016/jul/31/sainsburys-makes-online-push-in-china-tmall-global\",\"apiUrl\":\"https://content.guardianapis.com/business/2016/jul/31/sainsburys-makes-online-push-in-china-tmall-global\",\"isHosted\":false},{\"id\":\"world/2016/oct/21/pope-francis-targets-deal-with-china-in-year-of-mercy-vatican-bishops\",\"type\":\"article\",\"sectionId\":\"world\",\"sectionName\":\"World news\",\"webPublicationDate\":\"2016-10-21T10:20:27Z\",\"webTitle\":\"Pope Francis targets deal with China in year of mercy\",\"webUrl\":\"https://www.theguardian.com/world/2016/oct/21/pope-francis-targets-deal-with-china-in-year-of-mercy-vatican-bishops\",\"apiUrl\":\"https://content.guardianapis.com/world/2016/oct/21/pope-francis-targets-deal-with-china-in-year-of-mercy-vatican-bishops\",\"isHosted\":false},{\"id\":\"world/2016/oct/17/china-courts-philippines-leader-duterte-amid-signs-of-us-rift\",\"type\":\"article\",\"sectionId\":\"world\",\"sectionName\":\"World news\",\"webPublicationDate\":\"2016-10-17T05:04:52Z\",\"webTitle\":\"China courts Philippines leader Duterte amid signs of US rift\",\"webUrl\":\"https://www.theguardian.com/world/2016/oct/17/china-courts-philippines-leader-duterte-amid-signs-of-us-rift\",\"apiUrl\":\"https://content.guardianapis.com/world/2016/oct/17/china-courts-philippines-leader-duterte-amid-signs-of-us-rift\",\"isHosted\":false},{\"id\":\"australia-news/2016/oct/17/crown-resort-employees-husband-fears-for-wife-arrested-in-china\",\"type\":\"article\",\"sectionId\":\"australia-news\",\"sectionName\":\"Australia news\",\"webPublicationDate\":\"2016-10-17T02:11:44Z\",\"webTitle\":\"Crown Resorts employee's husband fears for wife arrested in China\",\"webUrl\":\"https://www.theguardian.com/australia-news/2016/oct/17/crown-resort-employees-husband-fears-for-wife-arrested-in-china\",\"apiUrl\":\"https://content.guardianapis.com/australia-news/2016/oct/17/crown-resort-employees-husband-fears-for-wife-arrested-in-china\",\"isHosted\":false},{\"id\":\"world/2016/oct/15/china-reputation-copycats-pelamis-intellectual-property\",\"type\":\"article\",\"sectionId\":\"world\",\"sectionName\":\"World news\",\"webPublicationDate\":\"2016-10-15T06:00:07Z\",\"webTitle\":\"Does China deserve a reputation as the land of copycats?\",\"webUrl\":\"https://www.theguardian.com/world/2016/oct/15/china-reputation-copycats-pelamis-intellectual-property\",\"apiUrl\":\"https://content.guardianapis.com/world/2016/oct/15/china-reputation-copycats-pelamis-intellectual-property\",\"isHosted\":false},{\"id\":\"science/life-and-physics/2016/oct/15/cross-cultural-science-the-bonn-physics-show-goes-to-china\",\"type\":\"article\",\"sectionId\":\"science\",\"sectionName\":\"Science\",\"webPublicationDate\":\"2016-10-15T12:32:28Z\",\"webTitle\":\"Cross Cultural Science: the Bonn Physics Show goes to China | Herbi Dreiner\",\"webUrl\":\"https://www.theguardian.com/science/life-and-physics/2016/oct/15/cross-cultural-science-the-bonn-physics-show-goes-to-china\",\"apiUrl\":\"https://content.guardianapis.com/science/life-and-physics/2016/oct/15/cross-cultural-science-the-bonn-physics-show-goes-to-china\",\"isHosted\":false}]}}"